^D:\PRO\C#\LEANGONJINUM\POINTERGAME\POINTERGAME\POINTERGAME.CPP
D:\PRO\C#\LEANGONJINUM\POINTERGAME\POINTERGAME\DEBUG\VC142.PDB
D:\PRO\C#\LEANGONJINUM\POINTERGAME\POINTERGAME\DEBUG\VC142.IDB
D:\PRO\C#\LEANGONJINUM\POINTERGAME\POINTERGAME\DEBUG\POINTERGAME.OBJ
