^D:\PRO\C#\LEANGONJINUM\LEARNPOINT\LEARNPOINT\LEARNPOINT.CPP
D:\PRO\C#\LEANGONJINUM\LEARNPOINT\LEARNPOINT\DEBUG\VC142.PDB
D:\PRO\C#\LEANGONJINUM\LEARNPOINT\LEARNPOINT\DEBUG\VC142.IDB
D:\PRO\C#\LEANGONJINUM\LEARNPOINT\LEARNPOINT\DEBUG\LEARNPOINT.OBJ
