^D:\PRO\C#\LEANGONJINUM\LEARNPOINT\LEARNPOINT\DEBUG\LEARNPOINT.OBJ
D:\PRO\C#\LEANGONJINUM\LEARNPOINT\DEBUG\LEARNPOINT.EXE
D:\PRO\C#\LEANGONJINUM\LEARNPOINT\DEBUG\LEARNPOINT.ILK
D:\PRO\C#\LEANGONJINUM\LEARNPOINT\DEBUG\LEARNPOINT.PDB
